{
    "name": "C++17",
    "dockerFile": "Dockerfile",
    "runArgs": [
        "-u",
        "dockeruser",
        "--cap-add=SYS_PTRACE",
        "--security-opt",
        "seccomp=unconfined",
        "--network=host"
    ],
    "settings": {
        "terminal.integrated.shell.linux": "/bin/bash",
        "http.proxyStrictSSL": true
    },
    "postCreateCommand": [
        "/bin/bash",
        "-c",
        ".devcontainer/Tools/PostStartScripts/CodeInContainerStartScripts.sh"
    ],
    "extensions": [
        "ankalus.git-tools",
        "arturock.gitstash",
        "austin.code-gnu-global",
        "bbenoist.Doxygen",
        "bibhasdn.git-easy",
        "bokuweb.vscode-git-grep",
        "byi8220.indented-block-highlighting",
        "christian-kohler.path-intellisense",
        "CoenraadS.bracket-pair-colorizer",
        "davidbroetje.algorithm-mnemonics-vscode",
        "donjayamanne.githistory",
        "eamodio.gitlens",
        "Gruntfuggly.todo-tree",
        "howardzuo.vscode-git-tags",
        "huizhou.githd",
        "ivangabriele.vscode-git-add-and-commit",
        "ajshort.include-autocomplete",
        "jeff-hykin.better-cpp-syntax",
        "kevinkyang.auto-comment-blocks",
        "letmaik.git-tree-compare",
        "manuth.markdown-converter",
        "matsken.git-stash-viewer",
        "ms-python.python",
        "ms-vscode-remote.remote-containers",
        "ms-vscode.cpptools",
        "NabeelValley.easyzoom",
        "paragdiwan.gitpatch",
        "samschneller.git-add-remote",
        "shaharkazaz.git-merger",
        "tomoki1207.pdf",
        "waderyan.gitblame",
        "wengerk.highlight-bad-chars",
        "xaver.clang-format",
        "cschlosser.doxdocgen",
        "ionutvmi.path-autocomplete",
        "ms-vscode.cmake-tools",
        //"llvm-vs-code-extensions.vscode-clangd",
        "cheshirekow.cmake-format",
        "twxs.cmake",
        "github.vscode-pull-request-github",
        "notskm.clang-tidy"
    ]
}
